{
    "restApiRoot": "/api",
    "domain": "www.textyzy.com",
    "domainPort": 80,
    "emailFrom": "admin@textyzy.com",
    "host": "0.0.0.0",
    "port": 3200,
    "remoting": {
        "context": {
            "enableHttpContext": false
        },
        "rest": {
            "normalizeHttpPath": false,
            "xml": false
        },
        "json": {
            "strict": false,
            "limit": "10000kb"
        },
        "urlencoded": {
            "extended": true,
            "limit": "10000kb"
        },
        "cors": false,
        "errorHandler": {
            "disableStackTrace": false
        }
    },
    "legacyExplorer": false
}
